name,exp,mult,rank,buy,sell,availability
Scraggley Wool,2,7,1,,15,Shear A Sheep
Fractured Horn,3,6,1,,15,Goblin
Moistened Scale,3,5,1,,15,Sahagin
Severed Wing,3,6,1,,15,Amphisbaena
Torn Leather,3,5,1,,15,Adroa
Begrimed Claw,4,4,1,,15,Kaiser Behemoth
Chipped Fang,4,7,2,,15,Gorgonopspid
Molted Tail,4,8,2,,15,Triffid
Murky Ooze,4,8,2,,15,Flan
Segmented Carapace,4,7,2,,15,Navidon
Shattered Bone,4,8,2,,15,Yaksha
Gummy Oil,5,6,2,,15,Alrune
Strange Fluid,5,5,2,,15,Ceratosaur
Cie'th Tear,6,10,2,,15,Seeker
Red Mycelium,6,10,2,,85,
Chocobo Plume,7,34,3,,20,Chocobo Mini-Game
Malodorous Fruit,7,21,3,,4000,
Rough Wool,9,13,3,,40,Shear A Sheep
Scaled Wing,10,12,3,80,40,Creature Comforts
Spined Horn,10,12,3,,40,Munchkin
Succulent Fruit,10,55,6,,1750,
Bestial Claw,11,10,3,80,40,Creature Comforts
Seapetal Scale,11,11,3,,40,Sahagin
Thickened Hide,11,11,3,80,40,Creature Comforts
Barbed Tail,12,14,4,80,40,Creature Comforts
Dawnlight Dew,12,31,2,,500,Chocobo Mini-Game
Sturdy Bone,12,14,4,80,40,Creature Comforts
Tear of Frustration,12,14,4,,40,Pijavica
Vibrant Ooze,12,14,4,80,40,Creature Comforts
Iron Shell,13,13,4,80,40,Creature Comforts
Wicked Fang,13,13,4,80,40,Creature Comforts
Fragrant Oil,14,12,4,80,40,Creature Comforts
Enigmatic Fluid,15,12,4,80,40,Creature Comforts
Thick Wool,19,18,5,,75,Shear A Sheep
Abominable Wing,21,17,5,150,75,Creature Comforts
Viendish Horn,21,17,5,,75,Goblin
Blue Mycelium,22,21,5,,190,
Abyssal Scale,23,16,5,,75,Orobon
Smooth Hide,23,16,5,150,75,Creature Comforts
Diabolic Tail,24,21,6,150,75,Creature Comforts
Gargantuan Claw,24,15,5,150,75,Creature Comforts
Otherworldly Bone,24,21,6,150,75,Creature Comforts
Tear of Remorse,24,24,6,,75,Seeker
Transparent Ooze,24,21,6,150,75,Creature Comforts
Armored Shell,26,20,6,150,75,Creature Comforts
Monstrous Fang,26,20,6,150,75,Creature Comforts
Dusklight Dew,28,42,3,,850,Chocobo Mini-Game
Chocobo Tail Feather,29,58,5,,50,Chocobo Mini-Game
Medicinal Oil,29,19,6,150,75,Creature Comforts
Mysterious Fluid,29,19,6,150,75,Creature Comforts
Gloomstalk,32,46,4,,1000,Microchu
Fluffy Wool,33,27,7,,110,Shear A Sheep
Infernal Horn,37,26,7,,110,Borgbear
Menacing Wings,37,26,7,,110,Zirnitra
Seaking's Beard,40,25,7,,110,Dagonite
Supple Leather,40,25,7,,110,Adroa
Hellish Talon,42,24,7,,110,Kaiser Behemoth
Ancient Bone,43,31,8,,110,Yaksha
Entrancing Tail,43,31,8,,110,Mushussu
Ineffable Fluid,43,29,8,,110,Ceratosaur
Esoteric Oil,47,29,8,,110,Alrune
Regenerating Carapace,47,30,8,,110,Gurangatch
Sinister Fang,47,30,8,,110,Uridimmu
White Mycelium,48,34,7,,360,
Tear of Woe,49,40,8,,110,Vampire
Wonder Gel,49,31,8,,110,Ectopudding
Green Needle ,60,100,7,7000,3500,R&D Depot
Moonblossom Seed,73,55,3,,6000,Bandersnatch
Black Mycelium,84,51,8,,675,
Sunpetal,102,21,8,,1000,Ochu
Perfume,180,120,10,,12500,Sacrifice
Starblossom Seed,230,91,6,,13000,Bandersnatch
