character,name,tier,max,buy,shop,catalyst,inc,exp
Lightning,Blazefire Saber,3,26,2000,Up In Arms,Perovskite,57,24600
Lightning,Flamberge,5,61,,,Trapezohedron,215,470550
Lightning,Omega Weapon (Blazefire Saber),11,100,,,,297,1767447
Lightning,Axis Blade,5,21,15000,Plautus's Workshop,Adamantite,225,66750
Lightning,Enkindler,9,41,,,Trapezohedron,261,347580
Lightning,Omega Weapon (Axis Blade),11,100,,,,297,1767447
Lightning,Edged Carbine,3,26,4600,Up In Arms,Perovskite,75,33000
Lightning,Razor Carbine,5,61,,,Trapezohedron,215,470550
Lightning,Omega Weapon (Edged Carbine),11,100,,,,297,1767447
Lightning,Lifesaber,5,21,20000,Plautus's Workshop,Scarletite,215,70850
Lightning,Peacemaker,8,41,,,Trapezohedron,240,307200
Lightning,Omega Weapon (Lifesaber),11,100,,,,297,1767447
Lightning,Gladius,4,26,7100,Up In Arms,Uraninite,116,54800
Lightning,Helter-skelter,6,61,,,Trapezohedron,168,387360
Lightning,Omega Weapon (Gladius),11,100,,,,297,1767447
Lightning,Organyx,2,26,280000,Gilgamesh Inc.,Cobaltite,42,20100
Lightning,Apocalypse,4,61,,,Trapezohedron,116,253320
Lightning,Omega Weapon (Organyx),11,100,,,,297,1767447
Lightning,Hauteclaire,4,26,20000,Gilgamesh Inc.,Uraninite,116,54800
Lightning,Durandal,6,61,,,Trapezohedron,168,387360
Lightning,Omega Weapon (Hauteclaire),11,100,,,,297,1767447
Lightning,Lionheart,6,21,28000,Plautus's Workshop,Scarletite,174,63060
Lightning,Ultima Weapon,8,41,,,Trapezohedron,232,284960
Lightning,Omega Weapon (Lionheart),11,100,,,,297,1767447
Snow,Wild Bear,3,26,1800,Up In Arms,Perovskite,57,24600
Snow,Feral Pride,5,61,,,Trapezohedron,215,470550
Snow,Save the Queen (Wild Bear),11,100,,,,286,1717353
Snow,Paladin,5,21,20000,Plautus's Workshop,Scarletite,225,66750
Snow,Winged Saint,8,41,,,Trapezohedron,232,284960
Snow,Save the Queen (Paladin),11,100,,,,286,1717353
Snow,Rebel Heart,4,21,11000,Plautus's Workshop,Uraninite,116,38040
Snow,Warrior's Emblem,6,41,,,Trapezohedron,168,191040
Snow,Save the Queen (Rebel Heart),11,100,,,,286,1717353
Snow,Power Circle,6,26,4500,Up In Arms,Scarletite,174,89700
Snow,Battle Standard,8,61,,,Trapezohedron,232,566640
Snow,Save the Queen (Power Circle),11,100,,,,286,1717353
Snow,Feymark,4,21,25000,Gilgamesh Inc.,Uraninite,116,38040
Snow,Soul Blazer,6,41,,,Trapezohedron,168,191040
Snow,Save the Queen (Feymark),11,100,,,,286,1717353
Snow,Sacrificial Circle,6,26,210000,Gilgamesh Inc.,Scarletite,174,89700
Snow,Indomitus,8,26,,,Trapezohedron,232,566640
Snow,Save the Queen (Sacrificial Circle),11,100,,,,286,1717353
Snow,Unsetting Sun,3,26,21000,Gilgamesh Inc.,Perovskite,75,33000
Snow,Midnight Sun,5,61,,,Trapezohedron,215,470550
Snow,Save the Queen (Unsetting Sun),11,100,,,,286,1717353
Snow,Umbra,5,21,32600,Plautus's Workshop,Adamantite,225,66750
Snow,Solaris,9,41,,,Trapezohedron,261,347580
Snow,Save the Queen (Umbra),11,100,,,,286,1717353
Sazh,Vega 42s,3,26,2000,Up In Arms,Perovskite,57,24600
Sazh,Altairs,5,61,,,Trapezohedron,215,470550
Sazh,Total Eclipses (Vega 42s),11,100,,,,363,2022273
Sazh,Spica Defenders,5,21,14500,Plautus's Workshop,Scarletite,225,66750
Sazh,Sirius Sidearms,8,41,,,Trapezohedron,232,284960
Sazh,Total Eclipses (Spica Defenders),11,100,,,,363,2022273
Sazh,Deneb Duellers,3,26,3900,Up In Arms,Perovskite,75,33000
Sazh,Canopus AMPs,5,61,,,Trapezohedron,215,470550
Sazh,Total Eclipses (Deneb Duellers),11,100,,,,363,2022273
Sazh,Rigels,4,26,19000,Gilgamesh Inc.,Uraninite,116,54800
Sazh,Polaris Specials,6,61,,,Trapezohedron,168,387360
Sazh,Total Eclipses (Rigels),11,100,,,,363,2022273
Sazh,Aldebarans,2,26,263000,Gilgamesh Inc.,Cobaltite,42,20100
Sazh,Sadalmeliks,4,61,,,Trapezohedron,116,253320
Sazh,Total Eclipses (Aldebarans),11,100,,,,363,2022273
Sazh,Pleiades Hi-Powers,3,26,22000,Gilgamesh Inc.,Perovskite,75,33000
Sazh,Hyades Magnums,5,61,,,Trapezohedron,215,470550
Sazh,Total Eclipses (Pleiades Hi-Powers),11,100,,,,363,2022273
Sazh,Antares Deluxes,4,21,22000,Plautus's Workshop,Uraninite,116,38040
Sazh,Fomalhaut Elites,6,41,,,Trapezohedron,168,191040
Sazh,Total Eclipses (Antares Deluxes),11,100,,,,363,2022273
Sazh,Procyons,6,21,30000,Plautus's Workshop,Dark Matter,174,63060
Sazh,Betelgeuse Customs,10,41,,,Trapezohedron,260,306800
Sazh,Total Eclipses (Procyons),11,100,,,,363,2022273
Hope,Airwing,4,21,10000,Plautus's Workshop,Uraninite,76,22440
Hope,Skycutter,6,41,,,Trapezohedron,168,191040
Hope,Nue (Airwing),11,100,,,,242,1555092
Hope,Hawkeye,3,26,4400,Up In arms,Perovskite,75,33000
Hope,Eagletalon,5,61,,,Trapezohedron,215,470550
Hope,Nue (Hawkeye),11,100,,,,242,1555092
Hope,Otshirvani,5,21,28200,Plautus's Workshop,Scarletite,225,66750
Hope,Urubutsin,8,41,,,Trapezohedron,232,284960
Hope,Nue (Otshirvani),11,100,,,,242,1555092
Hope,Ninurta,3,26,2800,Up In arms,Perovskite,75,33000
Hope,Jatayu,5,61,,,Trapezohedron,215,470550
Hope,Nue (Ninurta),11,100,,,,242,1555092
Hope,Vidofnir,5,21,16900,Plautus's Workshop,Scarletite,225,66750
Hope,Hresvelgr,8,41,,,Trapezohedron,232,284960
Hope,Nue (Vidofnir),11,100,,,,242,1555092
Hope,Simurgh,4,21,21200,Gilgamesh Inc.,Uraninite,116,38040
Hope,Tezcatlipoca,6,41,,,Trapezohedron,232,191040
Hope,Nue (Simurgh),11,100,,,,242,1555092
Hope,Malphas,3,26,198200,Gilgamesh Inc.,Perovskite,75,33000
Hope,Neberius,5,61,,,Trapezohedron,215,470550
Hope,Nue (Malphas),11,100,,,,242,1555092
Hope,Alicanto,4,26,18000,Gilgamesh Inc.,Uraninite,116,54800
Hope,Caldarius,6,61,,,Trapezohedron,168,387360
Hope,Nue (Alicanto),11,100,,,,242,1555092
Vanille,Binding Rod,3,26,2500,Up In Arms,Perovskite,57,24600
Vanille,Hunter's Rod,5,61,,,Trapezohedron,215,470550
Vanille,Nirvana (Binding Rod),11,100,,,,308,1864368
Vanille,Tigerclaw,2,26,300000,Gilgamesh Inc.,Cobaltite,42,20100
Vanille,Wyrmfang,4,61,,,Trapezohedron,116,253320
Vanille,Nirvana (Tigerclaw),11,100,,,,308,1864368
Vanille,Healer's Staff,5,21,19800,Plautus's Workshop,Adamantite,125,63750
Vanille,Physician's Staff,9,41,,,Trapezohedron,252,281160
Vanille,Nirvana (Healer's Staff),11,100,,,,308,1864368
Vanille,Pearlwing Staff,3,26,2300,Up In Arms,Perovskite,75,33000
Vanille,Brightwing Staff,5,61,,,Trapezohedron,215,470550
Vanille,Nirvana (Pearlwing Staff),11,100,,,,308,1864368
Vanille,Rod of Thorns,3,26,3000,Up In Arms,Perovskite,75,33000
Vanille,Orochi Rod,5,61,,,Trapezohedron,215,470550
Vanille,Nirvana (Rod of Thorns),11,100,,,,308,1864368
Vanille,Mistilteinn,5,21,11000,Plautus's Workshop,Scarletite,225,66750
Vanille,Erinye's Cane,8,41,,,Trapezohedron,232,284960
Vanille,Nirvana (Mistilteinn),11,100,,,,308,1864368
Vanille,Belladonna Wand,4,21,31200,Plautus's Workshop,Uraninite,116,38040
Vanille,Malboro Wand,6,41,,,Trapezohedron,168,191040
Vanille,Nirvana (Belladonna Wand),11,100,,,,308,1864368
Vanille,Heavenly Axis,4,26,24000,Gilgamesh Inc.,Uraninite,116,54800
Vanille,Abraxas,6,61,,,Trapezohedron,168,387360
Vanille,Nirvana (Heavenly Axis),11,100,,,,308,1864368
Fang,Bladed Lance,3,26,4500,Up In Arms,Perovskite,57,24600
Fang,Glaive,5,61,,,Trapezohedron,215,470550
Fang,Kain's Lance (Bladed Lance),11,100,,,,275,1769625
Fang,Dragoon Lance,4,21,230000,Gligamesh Inc.,Uraninite,116,38040
Fang,Dragonhorn,6,41,,,Trapezohedron,138,190680
Fang,Kain's Lance (Dragoon Lance),11,100,,,,275,1769625
Fang,Partisan,3,26,6600,Up In Arms,Perovskite,75,33000
Fang,Rhomphaia,5,61,,,Trapezohedron,115,307350
Fang,Kain's Lance (Partisan),11,100,,,,275,1769625
Fang,Shamanic Spear,4,21,23000,Gligamesh Inc.,Uraninite,116,38040
Fang,Heretic's Halberd,6,41,,,Trapezohedron,232,191040
Fang,Kain's Lance (Shamanic Spear),11,100,,,,275,1769625
Fang,Punisher,5,21,31000,Plautus's Workshop,Scarletite,215,70850
Fang,Banescissor Spear,8,41,,,Trapezohedron,232,284960
Fang,Kain's Lance (Punisher),11,100,,,,275,1769625
Fang,Pandoran Spear,5,21,16200,Plautus's Workshop,Scarletite,215,70850
Fang,Calamity Spear,8,41,,,Trapezohedron,240,307200
Fang,Kain's Lance (Pandoran Spear),11,100,,,,275,1769625
Fang,Taming Pole,4,26,27000,Gligamesh Inc.,Uraninite,116,54800
Fang,Venus Gospel,6,61,,,Trapezohedron,168,387360
Fang,Kain's Lance (Taming Pole),11,100,,,,275,1769625
Fang,Gae Bolg,5,21,13100,Plautus's Workshop,Scarletite,215,70850
Fang,Gungnir,6,41,,,Trapezohedron,232,284960
Fang,Kain's Lance (Gae Bolg),11,100,,,,275,1769625
